<?xml version="1.0" encoding="UTF-8"?>
<svg xmlns="http://www.w3.org/2000/svg" xmlns:xlink="http://www.w3.org/1999/xlink" width="32px" height="32px" viewBox="0 0 32 32" x="0px" y="0px" version="1.1">
  <defs/>
  <g>
    <circle cx="8" cy="16" r="2" fill="#4a4a4a" stroke="#4a4a4a" stroke-width="0"/>
    <circle cx="16" cy="16" r="2" fill="#4a4a4a" stroke="#4a4a4a" stroke-width="0"/>
    <circle cx="24" cy="16" r="2" fill="#4a4a4a" stroke="#4a4a4a" stroke-width="0"/>
  </g>
</svg>
