<?xml version="1.0" encoding="UTF-8"?>
<!-- Generator: Adobe Illustrator 21.0.0, SVG Export Plug-In . SVG Version: 6.00 Build 0)  -->
<svg xmlns="http://www.w3.org/2000/svg" xmlns:xlink="http://www.w3.org/1999/xlink" version="1.1" x="0px" y="0px" viewBox="0 0 48 48" style="enable-background:new 0 0 48 48;" xml:space="preserve">
<style type="text/css">
	.st0{fill:#5A7CC6;}
	.st1{display:none;fill:#5A7CC6;}
	.st2{fill:#FFFFFF;}
</style>
<g id="Layer_2">
	<rect x="2" y="2" class="st0" width="44" height="44"/>
</g>
<g id="Layer_1">
	
	<path class="st2" d="M38,12V4h-8h0c-4.4,0-8,3.6-8,8v8h-4v8h4v18h8V28h6l2-8h-8v-6c0-1.1,0.9-2,2-2H38z"/>
</g>
</svg>
