<?xml version="1.0" encoding="UTF-8"?>
<!-- Generator: Adobe Illustrator 21.0.0, SVG Export Plug-In . SVG Version: 6.00 Build 0)  -->
<svg xmlns="http://www.w3.org/2000/svg" xmlns:xlink="http://www.w3.org/1999/xlink" version="1.1" x="0px" y="0px" viewBox="0 0 48 48" style="enable-background:new 0 0 48 48;" xml:space="preserve">
<style type="text/css">
	.st0{display:none;fill:#5A7CC6;}
	.st1{fill:#F3F3F3;}
</style>
<g id="Layer_2">
</g>
<g id="Layer_1">
	
	<g>
		<g>
			<path class="st1" d="M2,2v44h20V28h-4v-8h4v-8c0-4.4,3.6-8,8-8h8v8h-6c-1.1,0-2,0.9-2,2v6h8l-2,8h-6v18h16V2H2z"/>
		</g>
	</g>
</g>
</svg>
