<?xml version="1.0" encoding="utf-8"?>
<!-- Generator: Adobe Illustrator 21.0.0, SVG Export Plug-In . SVG Version: 6.00 Build 0)  -->
<svg version="1.1" id="Layer_1" xmlns="http://www.w3.org/2000/svg" xmlns:xlink="http://www.w3.org/1999/xlink" x="0px" y="0px"
	 viewBox="0 0 32 32" style="enable-background:new 0 0 32 32;" xml:space="preserve">
<style type="text/css">
	.st0{fill:#0077B5;}
	.st1{fill:#F3F3F3;}
</style>
<rect x="2" y="2" class="st0" width="28" height="28"/>
<g>
	<rect x="8" y="12" class="st1" width="4" height="14"/>
	<circle class="st1" cx="10" cy="8" r="2"/>
	<path class="st1" d="M22,12c0,0-2,0-4,1.3V12h-4v14h4v-8.3c0-1,0.9-1.9,2-1.9h0c1.1,0,2,0.9,2,1.9V26h4V15.5C25.3,12.6,24,12,22,12
		z"/>
</g>
</svg>
