<?xml version="1.0" encoding="UTF-8"?>
<svg xmlns="http://www.w3.org/2000/svg" xmlns:xlink="http://www.w3.org/1999/xlink" width="32px" height="32px" viewBox="0 0 32 32" x="0px" y="0px" version="1.1">
  <defs/>
  <g>
    <path d="M29.4,1.5c-0.3-0.1-0.7-0.1-1,0.2L1.9,28.4c-0.3,0.3-0.3,0.7-0.2,1C1.9,29.8,2.2,30,2.6,30h26.5c0.5,0,0.9-0.4,0.9-0.9V2.4C30,2,29.8,1.7,29.4,1.5zM28,28H5l4.6-4.7l2.4,2.4c0.1,0.1,0.2,0.1,0.3,0.1c0.1,0,0.2,0,0.3-0.1c0.1-0.1,0.1-0.4,0-0.5l-2.4-2.4l1.7-1.7l1.8,1.8c0.1,0.1,0.2,0.1,0.3,0.1c0.1,0,0.2,0,0.3-0.1c0.1-0.1,0.1-0.4,0-0.5l-1.8-1.8l1.7-1.7l2.4,2.4c0.1,0.1,0.2,0.1,0.3,0.1c0.1,0,0.2,0,0.3-0.1c0.1-0.1,0.1-0.4,0-0.5l-2.4-2.4l1.7-1.7l1.8,1.8c0.1,0.1,0.2,0.1,0.3,0.1c0.1,0,0.2,0,0.3-0.1c0.1-0.1,0.1-0.4,0-0.5l-1.8-1.8l1.7-1.7l2.4,2.4C20.8,17,20.9,17,21,17c0.1,0,0.2,0,0.3-0.1c0.1-0.1,0.1-0.4,0-0.5L18.9,14l1.7-1.7l1.8,1.8c0.1,0.1,0.2,0.1,0.3,0.1c0.1,0,0.2,0,0.3-0.1c0.1-0.1,0.1-0.4,0-0.5L21,11.8l1.7-1.7c0,0,0,0,0,0l2.4,2.4c0.1,0.1,0.2,0.1,0.3,0.1c0.1,0,0.2,0,0.3-0.1c0.1-0.1,0.1-0.4,0-0.5l-2.4-2.4c0,0,0,0,0,0L28,5V28z" fill="#4a4a4a" stroke="#4a4a4a" stroke-width="0"/>
    <path d="M25.1,15.2c-0.2-0.1-0.4,0-0.6,0.1l-9,9.1c-0.2,0.2-0.2,0.4-0.1,0.6c0.1,0.2,0.3,0.3,0.5,0.3h9c0.3,0,0.6-0.2,0.6-0.6v-9.1C25.4,15.5,25.3,15.3,25.1,15.2zM24.3,24.3h-7.2l7.2-7.2V24.3z" fill="#4a4a4a" stroke="#4a4a4a" stroke-width="0"/>
  </g>
</svg>
