<?xml version="1.0" encoding="utf-8"?>
<!-- Generator: Adobe Illustrator 19.2.1, SVG Export Plug-In . SVG Version: 6.00 Build 0)  -->
<svg version="1.1" xmlns="http://www.w3.org/2000/svg" xmlns:xlink="http://www.w3.org/1999/xlink" x="0px" y="0px"
	 viewBox="0 0 48 48" style="enable-background:new 0 0 48 48;" xml:space="preserve">
<style type="text/css">
	.st0{fill:#4A4A4A;}
</style>
<g id="Layer_1">
</g>
<g id="Layer_2">
	<rect x="6" y="36" class="st0" width="36" height="4"/>
	<rect x="6" y="28" class="st0" width="4" height="8"/>
	<rect x="38" y="28" class="st0" width="4" height="8"/>
	<rect x="22" y="4" class="st0" width="4" height="20"/>
	<polygon class="st0" points="24,32 15,20 33,20 	"/>
</g>
</svg>
