<?xml version="1.0" encoding="UTF-8"?>
<svg xmlns="http://www.w3.org/2000/svg" xmlns:xlink="http://www.w3.org/1999/xlink" width="32px" height="32px" viewBox="0 0 32 32" x="0px" y="0px" version="1.1">
  <defs/>
  <g>
    <path d="M25,15L11.6,5.3c-0.5-0.4-1.1-0.4-1.7-0.1C9.3,5.4,9,6,9,6.6v19.5c0,0.6,0.3,1.2,0.9,1.4c0.2,0.1,0.5,0.2,0.7,0.2c0.3,0,0.7-0.1,0.9-0.3L25,17.6c0.4-0.3,0.7-0.8,0.7-1.3C25.6,15.8,25.4,15.3,25,15z" fill="#ffffff" stroke="#ffffff" stroke-width="0"/>
  </g>
</svg>
