<?xml version="1.0" encoding="utf-8"?>
<!-- Generator: Adobe Illustrator 19.2.1, SVG Export Plug-In . SVG Version: 6.00 Build 0)  -->
<svg version="1.1" id="Layer_1" xmlns="http://www.w3.org/2000/svg" xmlns:xlink="http://www.w3.org/1999/xlink" x="0px" y="0px"
	 viewBox="0 0 32 32" style="enable-background:new 0 0 32 32;" xml:space="preserve">
<style type="text/css">
	.st0{fill:url(#folder-fill_1_);}
</style>
<g>
	<g>
		
			<linearGradient id="folder-fill_1_" gradientUnits="userSpaceOnUse" x1="16" y1="48" x2="16" y2="70" gradientTransform="matrix(1 0 0 1 0 -42)">
			<stop  offset="0" style="stop-color:#FFFFFF"/>
			<stop  offset="1" style="stop-color:#F2F2F2"/>
		</linearGradient>
		<path id="folder-fill" class="st0" d="M2,10v18h28V6H20l-4,4H2z"/>
	</g>
</g>
</svg>
