<?xml version="1.0" encoding="utf-8"?>
<!-- Generator: Adobe Illustrator 21.0.0, SVG Export Plug-In . SVG Version: 6.00 Build 0)  -->
<svg version="1.1" id="Layer_1" xmlns="http://www.w3.org/2000/svg" xmlns:xlink="http://www.w3.org/1999/xlink" x="0px" y="0px"
	 viewBox="0 0 32 32" style="enable-background:new 0 0 32 32;" xml:space="preserve">
<style type="text/css">
	.st0{fill:#4A4A4A;}
</style>
<g id="Layer_2">
	<g>
		<g>
			<path class="st0" d="M16,19l-8-3v8c7,3,9,3,16,0v-8L16,19z"/>
		</g>
	</g>
	<polygon class="st0" points="16,17 1,11 16,6 31,11 	"/>
</g>
<rect x="2" y="11" class="st0" width="2" height="15"/>
</svg>
