<?xml version="1.0" encoding="utf-8"?>
<!-- Generator: Adobe Illustrator 19.2.1, SVG Export Plug-In . SVG Version: 6.00 Build 0)  -->
<svg version="1.1" id="Layer_1" xmlns="http://www.w3.org/2000/svg" xmlns:xlink="http://www.w3.org/1999/xlink" x="0px" y="0px"
	 viewBox="0 0 48 48" style="enable-background:new 0 0 48 48;" xml:space="preserve">
<style type="text/css">
	.st0{fill:#4A4A4A;}
	.st1{fill:#4A4A4A;stroke:#4A4A4A;stroke-width:2;stroke-miterlimit:10;}
	.st2{fill:none;stroke:#4A4A4A;stroke-width:2;stroke-miterlimit:10;}
</style>
<rect x="22" y="6" class="st0" width="2" height="36"/>
<polygon class="st1" points="5,15.5 5,34 16,24.8 "/>
<polygon class="st2" points="41,15.5 41,34 30,24.8 "/>
</svg>
