<?xml version="1.0" encoding="utf-8"?>
<!-- Generator: Adobe Illustrator 27.2.0, SVG Export Plug-In . SVG Version: 6.00 Build 0)  -->
<svg version="1.1" id="Layer_1" xmlns="http://www.w3.org/2000/svg" xmlns:xlink="http://www.w3.org/1999/xlink" x="0px" y="0px"
	 viewBox="0 0 48 48" style="enable-background:new 0 0 48 48;" xml:space="preserve">
<style type="text/css">
	.st0{fill:#4A4A4A;}
</style>
<rect x="10" y="4" class="st0" width="2" height="40"/>
<rect x="36" y="4" class="st0" width="2" height="40"/>
<rect x="10" y="8" class="st0" width="28" height="2"/>
<rect x="10" y="14" class="st0" width="28" height="2"/>
<rect x="10" y="20" class="st0" width="28" height="2"/>
<rect x="10" y="26" class="st0" width="28" height="2"/>
<rect x="10" y="32" class="st0" width="28" height="2"/>
<rect x="10" y="38" class="st0" width="28" height="2"/>
</svg>
