<?xml version="1.0" encoding="utf-8"?>
<!-- Generator: Adobe Illustrator 21.0.0, SVG Export Plug-In . SVG Version: 6.00 Build 0)  -->
<svg version="1.1" id="Layer_3" xmlns="http://www.w3.org/2000/svg" xmlns:xlink="http://www.w3.org/1999/xlink" x="0px" y="0px"
	 viewBox="0 0 48 48" style="enable-background:new 0 0 48 48;" xml:space="preserve">
<style type="text/css">
	.st0{fill:#FFFBB6;}
	.st1{fill:#4A4A4A;}
</style>
<polygon class="st0" points="33.1,29.1 32.8,37.8 6.2,37.8 6.2,8.1 42.3,8.1 42.3,29 "/>
<path class="st1" d="M4,6v34h30V30h10V6H4z M32,36H8V10h32v18h-8V36z"/>
<rect x="12" y="14" class="st1" width="24" height="2"/>
<rect x="12" y="20" class="st1" width="24" height="2"/>
<rect x="12" y="26" class="st1" width="18" height="2"/>
<polygon class="st1" points="43,31 35,39 35,37 41,31 "/>
</svg>
