<?xml version="1.0" encoding="utf-8"?>
<!-- Generator: Adobe Illustrator 21.0.0, SVG Export Plug-In . SVG Version: 6.00 Build 0)  -->
<svg version="1.1" id="Layer_1" xmlns="http://www.w3.org/2000/svg" xmlns:xlink="http://www.w3.org/1999/xlink" x="0px" y="0px"
	 viewBox="0 0 32 32" style="enable-background:new 0 0 32 32;" xml:space="preserve">
<style type="text/css">
	.st0{fill:#4A4A4A;}
	.st1{fill:#FFF315;}
</style>
<polygon class="st0" points="16,2 20.5,11.2 30.7,12.7 23.4,19.9 25.1,30 16,25.2 6.9,30 8.6,19.9 1.3,12.7 11.5,11.2 "/>
<polygon class="st1" points="16,6.8 19,12.9 25.7,13.8 20.8,18.5 22,25.2 16,22.1 10,25.2 11.2,18.5 6.3,13.8 13,12.9 "/>
</svg>
